{
  "type": "service_account",
  "project_id": "helper-xltk",
  "private_key_id": "85e1ef5840fcdd726d52365d9b20343b63eb54f4",
  "private_key": "-----BEGIN PRIVATE KEY-----\nMIIEvAIBADANBgkqhkiG9w0BAQEFAASCBKYwggSiAgEAAoIBAQDRV9BQjbQspwxY\nrgrKbqJRnplPkCeePoXYEaafCbvbQrikA0JUAaFbEVYJt8JllOKoiW1F/IT+jbDo\na0neUbMG2oQwgQPrv88CAWAxc2WOmu5ldAtm6yuF4W+zoFG7NqyS3DPBLtrUw/+A\nl1c5OV3iq9zWI8ezF5JDB+HJkk9no+c3IE3ZaX9AO2ZmYJMI8+bNsmdocwRPlalP\nhyabwe4E494xPV1zTm8rZ+6iYqIQMeGKEXaYp3DXBgNR1aYVHQsC26K5oYumhhfu\nnhjidDPgHzt0QfrGpW3ce9rzOnEdnRfIOg6BgzrCWTNiSnpBVBpRxHmv1qnToJ2Q\n2mUwasQ3AgMBAAECggEATssJijg7t47Mc9hWEWlgyO2z8KFmeAY6ZGAIYdXNEjLj\nwj/DyFCwxdEZnCDBF3DZeuv26B+qgxEbo+8152rCwnKezI7Sxfn01WFlLlerwugH\nkMIDxKIBSKvYWjieaqOigshE5pJXJTv8QA82ckBoWPes8CCZeowFrhsaXb8nCe+U\n5NxyrRG+vWQBAQLW5/IywwoYkY1U5gqcWJehMU8OXqMoKSJO04T1udStCALp1Py3\n1A3/ic0rNxeaGVZITzZCiubRxnuFC5S5jDJNoviH2ZZLdfuDxQk+FfMnThzofMPC\n2xHpE0AFbyCTXEtx0HcnHe+VbmukH+1mUMjRDNqLOQKBgQD/1TnFdXS4cpxqfYz+\nrP8feQNa/7jf52BzMqB3RWeYr6XvqMbx4se0aZArk7YXB+WkFOR+6DxU0di40t4u\ncNJrDfspJgMZDvwRVMcMA5HkTJfWynRz3LhqD/1SL6rZCH9R2cn7nFlsjfgwaune\ntA0giyIlDbGpeF2vuDPvxNN4hQKBgQDRetCrrnUIZxOJtQprQ3uy4hlgqcy5lyIJ\n65V/iSmBzpGFK4/mL2tZZAeeD+jaSBuetERKqkxbyrKLrAO/nBY3n1iV6p3caEzA\nV1EsOG+kv8+yqcrvXXIlRunaWtefiZa0T5dFWj08oKUGhwOjY2wSZGWVPOTJG3NZ\n9wFVDdFEiwKBgFp1haDpQCU7+Uy6KhGfD/KL8oDJrRAWmwcAnratpszZRr4wGnBK\n9Lw5G04dQ6RvGWbkMEsjSLnhHVV00jTvlade4TESjMPehYiHRn5cAMkNwB6lpXmW\nUOrHzpWx3yIwm/xQGthJ12DH7jsIgrtJRN7980vQxMIcmlvYsRyVpwSVAoGAZ1AN\nDj8SVTyQ9D+njdNQdJ7yKSxVXcrd7MqVhrrdD7oTJvyfEcWdSg79esUZ8F3T0WfS\nrohi9Hp5qE0D5EJU6sXZ6MY3aPa/s7TcwdRrq3M2OkVnYrpRi3T37MsUwQgYnYEL\neBbTUM1h1mBMOQ7VxBRjzUClDVJOh7Y8n/gal5UCgYAF8T+1JMr27Izh7fk7OCEg\nRiAU8oH9iVZGAtxFcnvjNvgYN8W2tXuh99Krw0RietjQvi9raQwmIZwYOMoyLSCh\n5EYLMVtmSdICFRrPjqG/CkS+310FpQx41BXu/FFKzroDZ7LZrTfKYdLCAesMKR1g\naR9vdvTY8q3SA2vurNfHSg==\n-----END PRIVATE KEY-----\n",
  "client_email": "unity-493@helper-xltk.iam.gserviceaccount.com",
  "client_id": "114932598097616276221",
  "auth_uri": "https://accounts.google.com/o/oauth2/auth",
  "token_uri": "https://oauth2.googleapis.com/token",
  "auth_provider_x509_cert_url": "https://www.googleapis.com/oauth2/v1/certs",
  "client_x509_cert_url": "https://www.googleapis.com/robot/v1/metadata/x509/unity-493%40helper-xltk.iam.gserviceaccount.com"
}
